…
``` r
cleaned_homicide =
  homicide %>%
  mutate(city_state = str_c(city, ", ", state)) %>% 
  mutate(solved = ifelse(disposition %in% c("Closed by arrest","Closed without arrest"), 1, 0)) %>%
  filter(!city_state %in% c("Dallas, TX", "Phoenix, AZ", "Kansas City, MO", "Tulsa, AL")) %>%
  filter(victim_race %in% c("White", "Black")) %>%
  mutate(victim_age = ifelse(victim_age == "unknown", NA, victim_age)) %>%
  mutate(victim_age = as.numeric(victim_age))

cleaned_homicide
```

    ## # A tibble: 39,693 × 14
    ##    uid        reported_date victim_last  victim_first victim_race victim_age
    ##    <chr>              <dbl> <chr>        <chr>        <chr>            <dbl>
    ##  1 Alb-000003      20100601 SATTERFIELD  VIVIANA      White               15
    ##  2 Alb-000005      20100102 MULA         VIVIAN       White               72
    ##  3 Alb-000006      20100126 BOOK         GERALDINE    White               91
    ##  4 Alb-000009      20100130 MARTIN-LEYVA GUSTAVO      White               56
    ##  5 Alb-000012      20100218 LUJAN        KEVIN        White               NA
    ##  6 Alb-000016      20100308 GRAY         STEFANIA     White               43
    ##  7 Alb-000018      20100323 DAVID        LARRY        White               52
    ##  8 Alb-000019      20100402 BRITO        ELIZABETH    White               22
    ##  9 Alb-000021      20100423 KING         TEVION       Black               15
    ## 10 Alb-000022      20100423 BOYKIN       CEDRIC       Black               25
    ## # ℹ 39,683 more rows
    ## # ℹ 8 more variables: victim_sex <chr>, city <chr>, state <chr>, lat <dbl>,
    ## #   lon <dbl>, disposition <chr>, city_state <chr>, solved <dbl>
…
cities_glm
```

    ## # A tibble: 47 × 4
    ## # Groups:   city_state [47]
    ##    city_state         OR CI_lower CI_upper
    ##    <chr>           <dbl>    <dbl>    <dbl>
    ##  1 Albuquerque, NM 0.430   0.132     1.16 
    ##  2 Atlanta, GA     0.512   0.323     0.789
    ##  3 Baltimore, MD   0.355   0.267     0.468
    ##  4 Baton Rouge, LA 0.319   0.160     0.596
    ##  5 Birmingham, AL  0.704   0.444     1.09 
    ##  6 Boston, MA      0.674   0.353     1.28 
    ##  7 Buffalo, NY     0.438   0.239     0.793
    ##  8 Charlotte, NC   0.301   0.143     0.572
    ##  9 Chicago, IL     0.391   0.321     0.476
    ## 10 Cincinnati, OH  0.206   0.0977    0.390
    ## # ℹ 37 more rows
…
                   "4" = "Puerto Rican", 
                   "8" = "Other")
    ) %>%
   mutate(
    babysex = as.factor(babysex),
    frace = as.factor(frace),
    malform = as.factor(malform),
    mrace = as.factor(mrace),
    parity = as.factor(parity),
    pnumlbw = as.factor(pnumlbw),
    pnumsga = as.factor(pnumsga)
    )
```

    ## # A tibble: 4,342 × 20
    ##    babysex bhead blength   bwt delwt fincome frace gaweeks malform menarche
    ##    <fct>   <dbl>   <dbl> <dbl> <dbl>   <dbl> <fct>   <dbl> <fct>      <dbl>
    ##  1 female     34      51  3629   177      35 White    39.9 absent        13
    ##  2 male       34      48  3062   156      65 Black    25.9 absent        14
    ##  3 female     36      50  3345   148      85 White    39.9 absent        12
    ##  4 male       34      52  3062   157      55 White    40   absent        14
    ##  5 female     34      52  3374   156       5 White    41.6 absent        13
    ##  6 male       33      52  3374   129      55 White    40.7 absent        12
    ##  7 female     33      46  2523   126      96 Black    40.3 absent        14
    ##  8 female     33      49  2778   140       5 White    37.4 absent        12
    ##  9 male       36      52  3515   146      85 White    40.3 absent        11
    ## 10 male       33      50  3459   169      75 Black    40.7 absent        12
    ## # ℹ 4,332 more rows
    ## # ℹ 10 more variables: mheight <dbl>, momage <dbl>, mrace <fct>, parity <fct>,
    ## #   pnumlbw <fct>, pnumsga <fct>, ppbmi <dbl>, ppwt <dbl>, smoken <dbl>,
    ## #   wtgain <dbl>
…
